{
  "data": {
    "items": [
      {
        "id": 950,
        "title": "new titl",
        "content": "new content",
        "comments_count": 0,
        "image": {
          "url": "https://mock-api.nals.vn/images/fallback/default.png"
        },
        "created_at": "2024-03-18T03:05:19.543Z",
        "updated_at": "2024-03-18T03:05:40.118Z"
      },
      {
        "id": 949,
        "title": "1914 translation by H. Rackham",
        "content": "On the other hand, we denounce with righteous indignation and disldeedfsdf",
        "comments_count": 0,
        "image": {
          "url": "https://res.cloudinary.com/sontd-nal-vn/image/upload/v1710506783/ye66qvvmebignj9tpkyn.jpg"
        },
        "created_at": "2024-03-15T08:59:38.160Z",
        "updated_at": "2024-03-15T12:46:23.190Z"
      },
      {
        "id": 948,
        "title": "My Blog s3s ",
        "content": "My Blog Content",
        "comments_count": 0,
        "image": {
          "url": "https://res.cloudinary.com/sontd-nal-vn/image/upload/v1710504045/jzev5zaa8iibgpegouvc.jpg"
        },
        "created_at": "2024-03-15T08:57:24.725Z",
        "updated_at": "2024-03-15T12:00:44.855Z"
      },
      {
        "id": 947,
        "title": "Hello this is my second post",
        "content": "Hello this is my second post",
        "comments_count": 0,
        "image": {
          "url": "https://mock-api.nals.vn/images/fallback/default.png"
        },
        "created_at": "2024-03-15T08:52:06.105Z",
        "updated_at": "2024-03-15T08:52:06.105Z"
      },
      {
        "id": 946,
        "title": "Hello this is my first post",
        "content": "Hello this is my first post",
        "comments_count": 0,
        "image": {
          "url": "https://mock-api.nals.vn/images/fallback/default.png"
        },
        "created_at": "2024-03-15T08:51:19.115Z",
        "updated_at": "2024-03-15T08:51:19.115Z"
      },
      {
        "id": 945,
        "title": "My Blog",
        "content": "My Blog Content",
        "comments_count": 0,
        "image": {
          "url": "https://mock-api.nals.vn/images/fallback/default.png"
        },
        "created_at": "2024-03-15T08:49:40.520Z",
        "updated_at": "2024-03-15T08:49:40.520Z"
      },
      {
        "id": 944,
        "title": "How we use it?",
        "content": "It is a long established fact that a reader will be distracted by the readable content of a page when looking at its layout. The point of using Lorem Ipsum is that it has a more-or-less normal distribution of letters, as opposed to using 'Content here, content here', making it look like readable English. Many desktop publishing packages and web page editors now use Lorem Ipsum as their default model text, and a search for 'lorem ipsum' will uncover many web sites still in their infancy. Various versions have evolved over the years, sometimes by accident, sometimes on purpose (injected humour and the like).",
        "comments_count": 0,
        "image": {
          "url": "https://res.cloudinary.com/sontd-nal-vn/image/upload/v1710491531/nxdql1jdzu8uufw5jfzu.jpg"
        },
        "created_at": "2024-03-15T08:32:10.969Z",
        "updated_at": "2024-03-15T08:32:10.969Z"
      },
      {
        "id": 943,
        "title": "How we use it?",
        "content": "It is a long established fact that a reader will be distracted by the readable content of a page when looking at its layout. The point of using Lorem Ipsum is that it has a more-or-less normal distribution of letters, as opposed to using 'Content here, content here', making it look like readable English. Many desktop publishing packages and web page editors now use Lorem Ipsum as their default model text, and a search for 'lorem ipsum' will uncover many web sites still in their infancy. Various versions have evolved over the years, sometimes by accident, sometimes on purpose (injected humour and the like).",
        "comments_count": 0,
        "image": {
          "url": "https://res.cloudinary.com/sontd-nal-vn/image/upload/v1710489549/ktnob7obr2acg9wvrajb.jpg"
        },
        "created_at": "2024-03-15T07:59:09.450Z",
        "updated_at": "2024-03-15T07:59:09.450Z"
      },
      {
        "id": 942,
        "title": "Why do we use it?",
        "content": "It is a long established fact that a reader will be distracted by the readable content of a page when looking at its layout. The point of using Lorem Ipsum is that it has a more-or-less normal distribution of letters, as opposed to using 'Content here, content here', making it look like readable English. Many desktop publishing packages and web page editors now use Lorem Ipsum as their default model text, and a search for 'lorem ipsum' will uncover many web sites still in their infancy. Various versions have evolved over the years, sometimes by accident, sometimes on purpose (injected humour and the like).",
        "comments_count": 0,
        "image": {
          "url": "https://res.cloudinary.com/sontd-nal-vn/image/upload/v1710489385/iwg1mfhm5tp26gzegbx0.jpg"
        },
        "created_at": "2024-03-15T07:56:25.820Z",
        "updated_at": "2024-03-15T07:56:25.820Z"
      },
      {
        "id": 941,
        "title": "NZD bắn đại bác đón Thủ tướng Phạm Minh Chính",
        "content": "Thủ tướng Christopher Luxon chủ trì lễ đón Thủ tướng Phạm Minh Chính thăm chính thức New Zealand với 19 phát đại bác chào mừng.\r\n",
        "comments_count": 0,
        "image": {
          "url": "https://res.cloudinary.com/sontd-nal-vn/image/upload/v1710128423/b9b40ivq17oigxhuvof6.jpg"
        },
        "created_at": "2024-03-11T03:40:23.554Z",
        "updated_at": "2024-03-11T03:40:53.602Z"
      },
      {
        "id": 938,
        "title": "ddd",
        "content": "ddd",
        "comments_count": 0,
        "image": {
          "url": "https://res.cloudinary.com/sontd-nal-vn/image/upload/v1710128144/zyrvxvfmq4qkv8cqk2qy.png"
        },
        "created_at": "2024-03-11T03:35:43.886Z",
        "updated_at": "2024-03-11T03:35:43.886Z"
      },
      {
        "id": 885,
        "title": "Title",
        "content": "Vash the Stampede is the man with a $$60,000,000,000 bounty on his head. The reason: he's a merciless villain who lays waste to all those that oppose him and flattens entire cities for fun, garnering him the title \"The Humanoid Typhoon.\" He leaves a trail of death and destruction wherever he goes, and anyone can count themselves dead if they so much as make eye contact—or so the rumors say. In actuality, Vash is a huge softie who claims to have never taken a life and avoids violence at all costs. With his crazy doughnut obsession and buffoonish attitude in tow, Vash traverses the wasteland of the planet Gunsmoke, all the while followed by two insurance agents, Meryl Stryfe and Milly Thompson, who attempt to minimize his impact on the public. But soon, their misadventures evolve into life-or-death situations as a group of legendary assassins are summoned to bring about suffering to the trio. Vash's agonizing past will be unraveled and his morality and principles pushed to the breaking point. ",
        "comments_count": 0,
        "image": {
          "url": "https://res.cloudinary.com/sontd-nal-vn/image/upload/v1706602914/fueer19hhzku0agycite.jpg"
        },
        "created_at": "2024-01-30T08:21:54.339Z",
        "updated_at": "2024-01-30T08:21:54.339Z"
      },
      {
        "id": 884,
        "title": "title",
        "content": "content\r\ncontent\r\ncontent\r\ncontent\r\ncontent",
        "comments_count": 0,
        "image": {
          "url": "https://res.cloudinary.com/sontd-nal-vn/image/upload/v1706597978/qyrs6oulvyltmfy681hm.png"
        },
        "created_at": "2024-01-30T06:59:38.412Z",
        "updated_at": "2024-01-30T06:59:38.412Z"
      },
      {
        "id": 883,
        "title": "title",
        "content": "content",
        "comments_count": 0,
        "image": {
          "url": "https://res.cloudinary.com/sontd-nal-vn/image/upload/v1706596998/gcmtjry9srjuyxst7vdx.jpg"
        },
        "created_at": "2024-01-30T06:43:18.691Z",
        "updated_at": "2024-01-30T06:43:18.691Z"
      },
      {
        "id": 882,
        "title": "Rước tài lộc cả năm với loạt phụ kiện đậm ‘chất’",
        "content": "điện thoại là một trong những item bất ly thân của người trẻ mỗi khi ra đường. Chiếc ốp điện thoại thần tài là hiện thân cho sự may mắn luôn song hành cùng người dùng trong mỗi bước đi. Vì thế, không có lý do gì để không thay áo mới cho “dế cưng” trước Tết này.\r\nKhông chỉ là phụ kiện bảo vệ tai nghe khỏi trầy xước mỗi khi rớt dọc đường, chiếc case này còn giúp bạn vui vẻ và sảng khoái tinh thần nhờ hình ảnh chú mèo béo tròn cười tít mắt.",
        "comments_count": 0,
        "image": {
          "url": "https://res.cloudinary.com/sontd-nal-vn/image/upload/v1706266522/etequuzbsxarxfm2jcel.jpg"
        },
        "created_at": "2024-01-26T10:55:22.211Z",
        "updated_at": "2024-01-26T10:55:22.211Z"
      },
      {
        "id": 881,
        "title": "222",
        "content": "22212",
        "comments_count": 0,
        "image": {
          "url": "https://res.cloudinary.com/sontd-nal-vn/image/upload/v1706265231/do4xifzjrbsvhllldbgi.jpg"
        },
        "created_at": "2024-01-26T10:33:50.947Z",
        "updated_at": "2024-01-26T10:33:50.947Z"
      },
      {
        "id": 880,
        "title": "new blog title tet with image",
        "content": "new blog content tet with image",
        "comments_count": 0,
        "image": {
          "url": "https://res.cloudinary.com/sontd-nal-vn/image/upload/v1706265020/pvunn8kxbyfmqguaeemb.jpg"
        },
        "created_at": "2024-01-26T10:30:20.472Z",
        "updated_at": "2024-01-26T10:30:20.472Z"
      },
      {
        "id": 877,
        "title": "My Blog",
        "content": "My Blog Content",
        "comments_count": 0,
        "image": {
          "url": "https://res.cloudinary.com/sontd-nal-vn/image/upload/v1706263283/lkecaznvpbic293mubn9.jpg"
        },
        "created_at": "2024-01-26T10:01:23.405Z",
        "updated_at": "2024-01-26T10:01:23.405Z"
      },
      {
        "id": 872,
        "title": "dfdf",
        "content": "# Hello World\r\nasdfsdf\r\nasdf",
        "comments_count": 0,
        "image": {
          "url": "https://res.cloudinary.com/sontd-nal-vn/image/upload/v1684230089/xvtxputm6jes08icrhvt.jpg"
        },
        "created_at": "2023-05-16T09:41:29.476Z",
        "updated_at": "2023-05-16T09:41:29.476Z"
      },
      {
        "id": 871,
        "title": "2",
        "content": "2",
        "comments_count": 0,
        "image": {
          "url": "https://res.cloudinary.com/sontd-nal-vn/image/upload/v1682846870/xcow1mmvzunoa4ufw2am.png"
        },
        "created_at": "2023-04-26T08:23:39.578Z",
        "updated_at": "2023-04-30T09:27:49.898Z"
      }
    ]
  },
  "pagination": {
    "count": 114,
    "page": 1,
    "offset": 20,
    "total": 6,
    "prev": null,
    "next": 2
  }
}
